^C:\USERS\LEE\DESKTOP\CODE\FILETREESERVERTHINGY\CLIENT\FORM1.RESX|C:\USERS\LEE\DESKTOP\CODE\FILETREESERVERTHINGY\CLIENT\PROPERTIES\RESOURCES.RESX
C:\USERS\LEE\DESKTOP\CODE\FILETREESERVERTHINGY\CLIENT\OBJ\X86\RELEASE\CLIENT.FORM1.RESOURCES
C:\USERS\LEE\DESKTOP\CODE\FILETREESERVERTHINGY\CLIENT\OBJ\X86\RELEASE\CLIENT.PROPERTIES.RESOURCES.RESOURCES
